% Please add the following required packages to your document preamble:
% \usepackage[table,xcdraw]{xcolor}
% If you use beamer only pass "xcolor=table" option, i.e. \documentclass[xcolor=table]{beamer}
\begin{table}[]
\centering
\caption{My caption}
\label{my-label}
\begin{tabular}{|l|l|l|l|l|l|l|l|l|l|l|l|l|l|}
\hline
\multicolumn{4}{|c|}{หัวข้องาน}                                                                            & \multicolumn{1}{r|}{ส.ค.59} & ก.ย.59                                          & ต.ค.59                                          & พ.ย.59                   & ธ.ค.59                   & ม.ค.60                   & ก.พ.60                   & มี.ค.60                  & เม.ย.60                                         & พ.ค.60                                          \\ \hline
\multicolumn{4}{|l|}{1.ศึกษา}                                                                              & \cellcolor[HTML]{656565}    & \cellcolor[HTML]{656565}{\color[HTML]{656565} } & \cellcolor[HTML]{656565}{\color[HTML]{656565} } & \cellcolor[HTML]{656565} &                          &                          &                          &                          &                                                 &                                                 \\ \hline
\multicolumn{4}{|l|}{1.1 ภาษา Python 2.7 \& 3.5}                                                           & \cellcolor[HTML]{656565}    & \cellcolor[HTML]{656565}                        &                                                 &                          &                          &                          &                          &                          &                                                 &                                                 \\ \cline{5-14}
\multicolumn{4}{|l|}{1.2 การใช้ Google Cloud}                                                              &                             & \cellcolor[HTML]{656565}                        & \cellcolor[HTML]{656565}                        & \cellcolor[HTML]{656565} &                          &                          &                          &                          &                                                 &                                                 \\ \cline{5-14}
\multicolumn{4}{|l|}{1.3 ภาษา XAML}                                                                        &                             & \cellcolor[HTML]{656565}                        & \cellcolor[HTML]{656565}                        & \cellcolor[HTML]{656565} &                          &                          &                          &                          &                                                 &                                                 \\ \cline{5-14}
\multicolumn{4}{|l|}{1.4 การใช้,Xamarin}                                                                   & \cellcolor[HTML]{656565}    & \cellcolor[HTML]{656565}                        & \cellcolor[HTML]{656565}                        & \cellcolor[HTML]{656565} &                          &                          &                          &                          &                                                 &                                                 \\ \hline
\multicolumn{4}{|l|}{2.ออกแบบโครงสร้าง}                                                                    &                             &                                                 & \cellcolor[HTML]{656565}                        & \cellcolor[HTML]{656565} & \cellcolor[HTML]{656565} &                          &                          &                          &                                                 &                                                 \\ \hline
\multicolumn{4}{|l|}{2.1 ฐานข้อมูล}                                                                        &                             &                                                 & \cellcolor[HTML]{656565}                        &                          &                          &                          &                          &                          &                                                 &                                                 \\ \cline{5-14}
\multicolumn{4}{|l|}{2.2 ออกแบบหน้าเว็บไซต์ส่วนของการจัดการหอพัก}                                          &                             &                                                 & \cellcolor[HTML]{656565}                        &                          &                          &                          &                          &                          &                                                 &                                                 \\ \cline{5-14}
\multicolumn{4}{|l|}{2.3 ออกแบบหน้าเว็บไซต์ส่วนของการใช้บริการ}                                            &                             &                                                 &                                                 & \cellcolor[HTML]{656565} &                          &                          &                          &                          &                                                 &                                                 \\ \cline{5-14}
\multicolumn{4}{|l|}{\begin{tabular}[c]{@{}l@{}}2.4 การทำงานของระบบ\\     (Frontend,Backend)\end{tabular}} &                             &                                                 &                                                 & \cellcolor[HTML]{656565} & \cellcolor[HTML]{656565} &                          &                          &                          &                                                 &                                                 \\ \cline{5-14}
\multicolumn{4}{|l|}{2.5 ออกแบบหน้าการใช้งานบน Application}                                                &                             &                                                 & \cellcolor[HTML]{656565}                        & \cellcolor[HTML]{656565} & \cellcolor[HTML]{656565} &                          &                          &                          &                                                 &                                                 \\ \hline
\multicolumn{4}{|l|}{3.จัดทำระบบ}                                                                          &                             &                                                 &                                                 & \cellcolor[HTML]{656565} & \cellcolor[HTML]{656565} & \cellcolor[HTML]{656565} & \cellcolor[HTML]{656565} & \cellcolor[HTML]{656565} & \cellcolor[HTML]{656565}                        &                                                 \\ \hline
\multicolumn{4}{|l|}{3.1 ระบบการจัดการของผู้จัดการหอพัก}                                                   &                             &                                                 &                                                 & \cellcolor[HTML]{656565} & \cellcolor[HTML]{656565} & \cellcolor[HTML]{656565} &                          &                          &                                                 &                                                 \\ \cline{5-14}
\multicolumn{4}{|l|}{3.2 ดึงข้อมูลจากฐานข้อมูลเพื่อแสดงผลบน Application}                                   &                             &                                                 &                                                 &                          & \cellcolor[HTML]{656565} & \cellcolor[HTML]{656565} & \cellcolor[HTML]{656565} & \cellcolor[HTML]{656565} &                                                 &                                                 \\ \cline{5-14}
\multicolumn{4}{|l|}{3.3 ระบบการใช้บริการหอพักผ่าน Raspberry Pi}                                           &                             &                                                 &                                                 &                          &                          &                          & \cellcolor[HTML]{656565} & \cellcolor[HTML]{656565} & \cellcolor[HTML]{656565}                        &                                                 \\ \cline{5-14}
\multicolumn{4}{|l|}{3.4 ระบบแจ้งเตือนผู้ใช้ผ่าน Application}                                              &                             &                                                 &                                                 &                          &                          &                          & \cellcolor[HTML]{656565} & \cellcolor[HTML]{656565} &                                                 &                                                 \\ \cline{5-14}
\multicolumn{4}{|l|}{3.5 ระบบประมวลรายรับ-จ่ายหอพัก}                                                       &                             &                                                 &                                                 &                          &                          &                          &                          & \cellcolor[HTML]{656565} & \cellcolor[HTML]{656565}                        &                                                 \\ \hline
\multicolumn{4}{|l|}{4.จัดทำรายงาน}                                                                        &                             &                                                 &                                                 &                          &                          &                          &                          &                          & \cellcolor[HTML]{656565}                        & \cellcolor[HTML]{656565}                        \\ \hline
\multicolumn{4}{|l|}{4.1 ทำเอกสาร(เล่มแดง)}                                                                &                             &                                                 &                                                 &                          &                          &                          &                          &                          & \cellcolor[HTML]{656565}{\color[HTML]{343434} } & \cellcolor[HTML]{656565}{\color[HTML]{343434} } \\ \hline
\end{tabular}
\end{table}
